{
  "swagger": "2.0",
  "info": {
    "title": "Crud de carros com opcionais e JWT.",
    "description": "Esta é um projeto feito para um teste para uma vaga de desenvolvedor na UnyLeya, uma API, com operações básicas para CRUD de carros e seus opcionais, usando validação de acesso via JWT. \n \n Para usar a API devidamente, é necessário gerar um <b>TOKEN</b>. Se o leia-me foi seguido devidamente(https://bitbucket.org/hotpea/unyleya), já existe um usuário cadastrado, email: <b>admin@admin.com</b> e senha <b>admin123</b>. Esse usuário pode ser usado para gerar um token e esse token usado para consumir todos os métodos da API. \n \n É necessário cadastrar primeiramente os <b>opcionais</b> que são pré requisitos para o cadastro de <b>carros</b>.",
    "version": "1.1.2",
    "contact":{
      "email":"stefan.delima.amaral@gmail.com"
    }
  },
  "tags":[
    {
      "name":"Lumen",
      "description":"Sobre o framework."
    },
    {
      "name":"Auth JWT",
      "description":"Sobre o framework."
    },
    {
      "name":"Carro",
      "description":"Operações básicas para os registros de carros."
    },
    {
      "name":"Opcional",
      "description":"Operações básicas para os registros de opcionais."
    },
    {
      "name":"Usuario",
      "description":"Operações com usuários."
    }
  ],
  "paths": {
    "/": {
      "get": {
        "tags":[
          "Lumen"
        ],
        "summary": "index padrão do Framework.",
        "responses": {
          "200": {
            "description": "Rota padrão do framework para recuperar a versão do LUMEN usada para este projeto."
          }
        }
      }
    },
    "/auth/login": {
      "post": {
        "tags":[
          "Auth JWT"
        ],
        "summary": "Gerar token de usuário.",
        "parameters": [
          {
            "name":"email",
            "in":"formData",
            "description":"Email válido de um usuário cadastrado.",
            "required":true,
            "type":"string"
          },
          {
            "name":"password",
            "in":"formData",
            "description":"Senha válida de um usuário cadastrado.",
            "required":true,
            "type":"string"
          }
        ],
        "responses": {
          "200": {
            "description": "Gera um token de acesso à api de acordo com os dados de usuário passados."
          }
        }
      }
    },
    "/api/cars": {
      "get": {
        "tags":[
          "Carro"
        ],
        "summary": "Listagem geral de carros",
        "parameters":[
          {
            "name":"Authorization",
            "in":"header",
            "default": "Bearer <token>",
            "description":"Token de acesso.",
            "required":true,
            "type":"integer",
            "format":"int32"
          }
        ],
        "responses": {
          "200": {
            "description": "Retorna uma lista com todos os carros cadastrados e seus opcionais."
          }
        }
      }
    },
    "/api/cars/show": {
      "post": {
        "tags":[
          "Carro"
        ],
        "summary": "Busca um carro pelo id",
        "parameters":[
          {
            "name":"Authorization",
            "in":"header",
            "default": "Bearer <token>",
            "description":"Token de acesso.",
            "required":true,
            "type":"integer",
            "format":"int32"
          },
          {
            "name":"id",
            "in":"formData",
            "description":"id do carro a ser buscado.",
            "required":true,
            "type":"integer",
            "format":"int32"
          }
        ],
        "responses": {
          "200": {
            "description": "Retorna um carro específico pelo id e seus opcionais."
          }
        }
      }
    },
    "/api/cars/store": {
      "post": {
        "tags":[
          "Carro"
        ],
        "summary": "Salva um carro na base de dados",
        "parameters": [
          {
            "name":"Authorization",
            "in":"header",
            "default": "Bearer <token>",
            "description":"Token de acesso.",
            "required":true,
            "type":"integer",
            "format":"int32"
          },
          {
            "in": "body",
            "name": "body params",
            "default": "{\n   \"model_name\": \"<model_name>\",\n   \"model_year\":\"<model_year>\",\n   \"wheel_size\":\"<wheel_size>\",\n   \"accessories\": [\n      {\n         \"id\": \"<id>\"\n      }\n    ] \n}",
            "description": "Dados do carro em formato JSON.",
            "required": true
          }
        ],
        "responses": {
          "200": {
            "description": "Recebe dos dados do carro via POST e os grava no banco de dados."
          }
        }
      }
    },
    "/api/cars/update": {
      "post": {
        "tags": [
          "Carro"
        ],
        "parameters": [
          {
            "name":"Authorization",
            "in":"header",
            "default": "Bearer <token>",
            "description":"Token de acesso.",
            "required":true,
            "type":"integer",
            "format":"int32"
          },
          {
            "in": "body",
            "name": "body params",
            "default": "{\n   \"id\": \"<id>\",\n   \"model_name\": \"<model_name>\",\n   \"model_year\":\"<model_year>\",\n   \"wheel_size\":\"<wheel_size>\",\n   \"accessories\": [\n      {\n         \"id\": \"<id>\"\n      }\n    ] \n}",
            "description": "Dados do carro em formato JSON.",
            "required": true
          }
        ],
        "summary": "Atualiza um carro na base de dados",
        "responses": {
          "200": {
            "description": "Recebe dos dados do carro via POST e os atualiza no banco de dados de acordo com o id passado."
          }
        }
      }
    },
    "/api/cars/destroy": {
      "post": {
        "tags": [
          "Carro"
        ],
        "parameters": [
          {
            "name":"Authorization",
            "in":"header",
            "default": "Bearer <token>",
            "description":"Token de acesso.",
            "required":true,
            "type":"integer",
            "format":"int32"
          },
          {
            "name":"id",
            "in":"formData",
            "description":"id do carro a ser editado.",
            "required":true,
            "type":"string"
          }
        ],
        "summary": "Deleta um carro na base de dados",
        "responses": {
          "200": {
            "description": "Recebe o id do carro via POST e o deleta do banco de dados de acordo com o id passado."
          }
        }
      }
    },
    "/api/accessories": {
      "get": {
        "tags":[
          "Opcional"
        ],
        "summary": "Listagem geral de opcionais.",
        "parameters":[
          {
            "name":"Authorization",
            "in":"header",
            "default": "Bearer <token>",
            "description":"Token de acesso.",
            "required":true,
            "type":"integer",
            "format":"int32"
          }
        ],
        "responses": {
          "200": {
            "description": "Retorna uma lista com todos os opcionais cadastrados e os carros que possuem estes opcionais."
          }
        }
      }
    },
    "/api/accessories/show": {
      "post": {
        "tags":[
          "Opcional"
        ],
        "summary": "Busca um opcional pelo id",
        "parameters":[
          {
            "name":"Authorization",
            "in":"header",
            "default": "Bearer <token>",
            "description":"Token de acesso.",
            "required":true,
            "type":"integer",
            "format":"int32"
          },
          {
            "name":"id",
            "in":"formData",
            "description":"id do opcional a ser buscado.",
            "required":true,
            "type":"integer",
            "format":"int32"
          }
        ],
        "summary": "Listagem geral de opcionais",
        "responses": {
          "200": {
            "description": "Retorna uma lista com todos os opcionais cadastrados e os carros que possuem estes opcionais."
          }
        }
      }
    },
    "/api/accessories/store": {
      "post": {
        "tags":[
          "Opcional"
        ],
        "parameters": [
          {
            "name":"Authorization",
            "in":"header",
            "default": "Bearer <token>",
            "description":"Token de acesso.",
            "required":true,
            "type":"integer",
            "format":"int32"
          },
          {
            "name":"accessory_name",
            "in":"formData",
            "description":"Nome do opcional a ser cadastrado.",
            "required":true,
            "type":"string"
          },
          {
            "name":"optional",
            "in":"formData",
            "description":"Booleano para definir se é opcional ou não.",
            "required":true,
            "type":"boolean"
          }
        ],
        "summary": "Salva um opcional na base de dados",
        "responses": {
          "200": {
            "description": "Recebe os dados do opcional via POST e o grava no banco de dados de acordo com o id passado."
          }
        }
      }
    },
    "/api/accessories/update": {
      "post": {
        "tags": [
          "Opcional"
        ],
        "parameters": [
          {
            "name":"Authorization",
            "in":"header",
            "default": "Bearer <token>",
            "description":"Token de acesso.",
            "required":true,
            "type":"integer",
            "format":"int32"
          },
          {
            "name":"id",
            "in":"formData",
            "description":"id do opcional a ser editado.",
            "required":true,
            "type":"string"
          },
          {
            "name":"accessory_name",
            "in":"formData",
            "description":"Novo nome do opcional a ser editado.",
            "required":true,
            "type":"string"
          },
          {
            "name":"optional",
            "in":"formData",
            "description":"Booleano para definir se é opcional ou não.",
            "required":true,
            "type":"boolean"
          }
        ],
        "summary": "Atualiza um opcional na base de dados",
        "responses": {
          "200": {
            "description": "Recebe dos dados do opcional via POST e o atualiza no banco de dados de acordo com o id passado."
          }
        }
      }
    },
    "/api/accessories/destroy": {
      "post": {
        "tags": [
          "Opcional"
        ],
        "parameters": [
          {
            "name":"Authorization",
            "in":"header",
            "default": "Bearer <token>",
            "description":"Token de acesso.",
            "required":true,
            "type":"integer",
            "format":"int32"
          },
          {
            "name":"id",
            "in":"formData",
            "description":"id do opcional a ser excluido.",
            "required":true,
            "type":"string"
          }
        ],
        "summary": "Deleta um opcional da base de dados",
        "responses": {
          "200": {
            "description": "Recebe o id do opcional via POST e o deleta do banco de dados de acordo com o id passado."
          }
        }
      }
    },
    "/api/users": {
      "get": {
        "tags":[
          "Usuario"
        ],
        "summary": "Listagem geral de usuarios.",
        "parameters":[
          {
            "name":"Authorization",
            "in":"header",
            "default": "Bearer <token>",
            "description":"Token de acesso.",
            "required":true,
            "type":"integer",
            "format":"int32"
          }
        ],
        "responses": {
          "200": {
            "description": "Retorna uma lista com todos os usuarios cadastrados no sistema."
          }
        }
      }
    },
    "/api/users/show": {
      "post": {
        "tags":[
          "Usuario"
        ],
        "summary": "Busca um usuário pelo id",
        "parameters":[
          {
            "name":"Authorization",
            "in":"header",
            "default": "Bearer <token>",
            "description":"Token de acesso.",
            "required":true,
            "type":"integer",
            "format":"int32"
          },
          {
            "name":"id",
            "in":"formData",
            "description":"id do usuário a ser buscado.",
            "required":true,
            "type":"integer",
            "format":"int32"
          }
        ],
        "summary": "Busca de usuário",
        "responses": {
          "200": {
            "description": "Retorna um usuário pelo id."
          }
        }
      }
    },
    "/api/users/store": {
      "post": {
        "tags":[
          "Usuario"
        ],
        "parameters": [
          {
            "name":"Authorization",
            "in":"header",
            "default": "Bearer <token>",
            "description":"Token de acesso.",
            "required":true,
            "type":"integer",
            "format":"int32"
          },
          {
            "name":"name",
            "in":"formData",
            "description":"Nome do usuário a ser cadastrado.",
            "required":true,
            "type":"string"
          },
          {
            "name":"email",
            "in":"formData",
            "description":"Email do usuário a ser cadastrado.",
            "required":true,
            "type":"string"
          },
          {
            "name":"password",
            "in":"formData",
            "description":"Senha do usuário a ser cadastrado.",
            "required":true,
            "type":"string"
          }
        ],
        "summary": "Salva um usuário na base de dados",
        "responses": {
          "200": {
            "description": "Recebe os dados do usuário via POST e o grava no banco de dados de acordo."
          }
        }
      }
    },
    "/api/users/update": {
      "post": {
        "tags": [
          "Usuario"
        ],
        "parameters": [
          {
            "name":"Authorization",
            "in":"header",
            "default": "Bearer <token>",
            "description":"Token de acesso.",
            "required":true,
            "type":"integer",
            "format":"int32"
          },
          {
            "name":"id",
            "in":"formData",
            "description":"id do usuário a ser editado.",
            "required":true,
            "type":"string"
          },
          {
            "name":"name",
            "in":"formData",
            "description":"Novo nome do opcional a ser editado.",
            "required":true,
            "type":"string"
          },
          {
            "name":"old_email",
            "in":"formData",
            "description":"Email atual do usuário a ser editado.",
            "required":true,
            "type":"string"
          },
          {
            "name":"email",
            "in":"formData",
            "description":"Email novo do usuário a ser editado.",
            "required":true,
            "type":"string"
          },
          {
            "name":"old_password",
            "in":"formData",
            "description":"Senha atual do usuário a ser editado.",
            "required":true,
            "type":"string"
          },
          {
            "name":"password",
            "in":"formData",
            "description":"Senha nova do usuário a ser editado.",
            "required":true,
            "type":"string"
          }
        ],
        "summary": "Atualiza um usuário na base de dados",
        "responses": {
          "200": {
            "description": "Recebe dos dados do usuário via POST e o atualiza no banco de dados de acordo com o id passado."
          }
        }
      }
    },
    "/api/users/destroy": {
      "post": {
        "tags": [
          "Usuario"
        ],
        "parameters": [
          {
            "name":"Authorization",
            "in":"header",
            "default": "Bearer <token>",
            "description":"Token de acesso.",
            "required":true,
            "type":"integer",
            "format":"int32"
          },
          {
            "name":"id",
            "in":"formData",
            "description":"id do usuário a ser excluido.",
            "required":true,
            "type":"string"
          }
        ],
        "summary": "Deleta um usuárioda base de dados",
        "responses": {
          "200": {
            "description": "Recebe o id do usuário via POST e o deleta do banco de dados de acordo com o id passado."
          }
        }
      }
    }
  },
  "definitions": {}
}